musicviz_arch.vcd
$date
     Dec 07, 2025       19:39:36
$end

$version
 SystemC 2.3.3-Accellera --- Mar 17 2022 13:55:26
$end

$timescale
     1 ms
$end

$scope module SystemC $end
$var real    1  aaaaa  max_mag       $end
$var real    1  aaaab  bar01       $end
$var real    1  aaaac  bar02       $end
$var real    1  aaaad  bar03       $end
$var real    1  aaaae  bar04       $end
$var real    1  aaaaf  bar05       $end
$var real    1  aaaag  bar06       $end
$var real    1  aaaah  bar07       $end
$var real    1  aaaai  bar08       $end
$var real    1  aaaaj  bar09       $end
$var real    1  aaaak  bar10       $end
$var real    1  aaaal  bar11       $end
$var real    1  aaaam  bar12       $end
$var real    1  aaaan  bar13       $end
$var real    1  aaaao  bar14       $end
$var real    1  aaaap  bar15       $end
$var real    1  aaaaq  bar16       $end
$var real    1  aaaar  bar17       $end
$var real    1  aaaas  bar18       $end
$var real    1  aaaat  bar19       $end
$var real    1  aaaau  bar20       $end
$var real    1  aaaav  bar21       $end
$var real    1  aaaaw  bar22       $end
$var real    1  aaaax  bar23       $end
$var real    1  aaaay  bar24       $end
$var real    1  aaaaz  bar25       $end
$var real    1  aaaba  bar26       $end
$var real    1  aaabb  bar27       $end
$var real    1  aaabc  bar28       $end
$var real    1  aaabd  bar29       $end
$var real    1  aaabe  bar30       $end
$var real    1  aaabf  bar31       $end
$var real    1  aaabg  bar32       $end
$var real    1  aaabh  bar33       $end
$var real    1  aaabi  bar34       $end
$var real    1  aaabj  bar35       $end
$var real    1  aaabk  bar36       $end
$var real    1  aaabl  bar37       $end
$var real    1  aaabm  bar38       $end
$var real    1  aaabn  bar39       $end
$var real    1  aaabo  bar40       $end
$upscope $end
$enddefinitions  $end

$comment
All initial values are dumped below at time 0 sec = 0 timescale units.
$end

$dumpvars
r0 aaaaa
r0 aaaab
r0 aaaac
r0 aaaad
r0 aaaae
r0 aaaaf
r0 aaaag
r0 aaaah
r0 aaaai
r0 aaaaj
r0 aaaak
r0 aaaal
r0 aaaam
r0 aaaan
r0 aaaao
r0 aaaap
r0 aaaaq
r0 aaaar
r0 aaaas
r0 aaaat
r0 aaaau
r0 aaaav
r0 aaaaw
r0 aaaax
r0 aaaay
r0 aaaaz
r0 aaaba
r0 aaabb
r0 aaabc
r0 aaabd
r0 aaabe
r0 aaabf
r0 aaabg
r0 aaabh
r0 aaabi
r0 aaabj
r0 aaabk
r0 aaabl
r0 aaabm
r0 aaabn
r0 aaabo
$end

#1
r191.9384002685547 aaaaa
r1 aaaab
r0.7441836595535278 aaaac
r0.2161097079515457 aaaad
r0.1759279817342758 aaaae
r0.06825851649045944 aaaaf
r0.09765946120023727 aaaag
r0.05878341197967529 aaaah
r0.06124479696154594 aaaai
r0.04672665894031525 aaaaj
r0.04593391716480255 aaaak
r0.03825023025274277 aaaal
r0.03687663748860359 aaaam
r0.03218443691730499 aaaan
r0.03075519949197769 aaaao
r0.02761035412549973 aaaap
r0.02624374628067017 aaaaq
r0.02396872453391552 aaaar
r0.02266054227948189 aaaas
r0.02087600156664848 aaaat
r0.0195386279374361 aaaau
r0.01797221601009369 aaaav
r0.01630065217614174 aaaaw
r0.01473408192396164 aaaax
r0.01107365731149912 aaaay
r0.02585720829665661 aaaaz
r0.05243837833404541 aaaba
r0.02831064537167549 aaabb
r0.02103730663657188 aaabc
r0.01968794129788876 aaabd
r0.01739992015063763 aaabe
r0.01692468486726284 aaabf
r0.01553599536418915 aaabg
r0.0152823943644762 aaabh
r0.01424137968569994 aaabi
r0.01408585160970688 aaabj
r0.01323000248521566 aaabk
r0.01313150301575661 aaabl
r0.01239332836121321 aaabm
r0.01233313418924809 aaabn
r0.01167828962206841 aaabo

#11
r348.7535095214844 aaaaa
r0.3346267640590668 aaaac
r0.1315732300281525 aaaad
r0.0961538627743721 aaaae
r0.106255941092968 aaaaf
r0.04676385223865509 aaaag
r0.03709828108549118 aaaah
r0.03140955045819283 aaaai
r0.02738669142127037 aaaaj
r0.02433883585035801 aaaak
r0.02193513885140419 aaaal
r0.01998612470924854 aaaam
r0.01837280951440334 aaaan
r0.0170160811394453 aaaao
r0.01586138643324375 aaaap
r0.01487030833959579 aaaaq
r0.01401587016880512 aaaar
r0.01328021939843893 aaaas
r0.01265416666865349 aaaat
r0.01213970500975847 aaaau
r0.01175879687070847 aaaav
r0.01158166490495205 aaaaw
r0.01183413248509169 aaaax
r0.01347339991480112 aaaay
r0.02506044320762157 aaaaz
r0.03347057476639748 aaaba
r0.01203261222690344 aaabb
r0.009389299899339676 aaabc
r0.008452931419014931 aaabd
r0.007932260632514954 aaabe
r0.007563331164419651 aaabf
r0.007266407832503319 aaabg
r0.007010816596448421 aaabh
r0.006782598793506622 aaabi
r0.006574444472789764 aaabj
r0.006382102146744728 aaabk
r0.006202854216098785 aaabl
r0.006034824997186661 aaabm
r0.005876635201275349 aaabn
r0.005727216601371765 aaabo

#21
r294.7287292480469 aaaaa
r0.3112095296382904 aaaac
r0.1093249097466469 aaaad
r0.07639505714178085 aaaae
r0.1326969712972641 aaaaf
r0.04718717932701111 aaaag
r0.03388027101755142 aaaah
r0.02724600583314896 aaaai
r0.02298550494015217 aaaaj
r0.01993738301098347 aaaak
r0.01761608570814133 aaaal
r0.01577133312821388 aaaam
r0.01425731275230646 aaaan
r0.0129815973341465 aaaao
r0.01188164483755827 aaaap
r0.01091255899518728 aaaaq
r0.01004011183977127 aaaar
r0.00923632737249136 aaaas
r0.008476514369249344 aaaat
r0.007737660780549049 aaaau
r0.007000880781561136 aaaav
r0.006275568157434464 aaaaw
r0.005762127693742514 aaaax
r0.006964684464037418 aaaay
r0.02157831564545631 aaaaz
r0.04489468783140182 aaaba
r0.01695872843265533 aaabb
r0.01230155862867832 aaabc
r0.0103190653026104 aaabd
r0.009174002334475517 aaabe
r0.008399493061006069 aaabf
r0.007823278196156025 aaabg
r0.007367135025560856 aaabh
r0.006990282796323299 aaabi
r0.006669319234788418 aaabj
r0.006389743648469448 aaabk
r0.006142051424831152 aaabl
r0.005919705145061016 aaabm
r0.005718021187931299 aaabn
r0.005533533170819283 aaabo

#31
r175.2022094726562 aaaaa
r0.5697968006134033 aaaac
r0.2847011685371399 aaaad
r0.2536289393901825 aaaae
r0.08330119401216507 aaaaf
r0.05948247388005257 aaaag
r0.06194132193922997 aaaah
r0.05779986083507538 aaaai
r0.05304009094834328 aaaaj
r0.04868176579475403 aaaak
r0.04488552734255791 aaaal
r0.04162160307168961 aaaam
r0.03882187977433205 aaaan
r0.0364195853471756 aaaao
r0.03435934334993362 aaaap
r0.03259926289319992 aaaaq
r0.03111123107373714 aaaar
r0.02988226152956486 aaaas
r0.02891855686903 aaaat
r0.02825611270964146 aaaau
r0.02798735350370407 aaaav
r0.02833518944680691 aaaaw
r0.02990411408245564 aaaax
r0.03489764034748077 aaaay
r0.06076184660196304 aaaaz
r0.05293891578912735 aaaba
r0.01221795007586479 aaabb
r0.01114885415881872 aaabc
r0.01177139766514301 aaabd
r0.01214647851884365 aaabe
r0.01228880416601896 aaabf
r0.01228536013513803 aaabg
r0.01219350006431341 aaabh
r0.01204784959554672 aaabi
r0.011869584210217 aaabj
r0.01167202461510897 aaabk
r0.01146371103823185 aaabl
r0.01125026773661375 aaabm
r0.01103544887155294 aaabn
r0.0108217466622591 aaabo

#41
r110.7050476074219 aaaaa
r0.4926969707012177 aaaac
r0.216504380106926 aaaad
r0.2210049778223038 aaaae
r0.2814764380455017 aaaaf
r0.06975506991147995 aaaag
r0.04976759850978851 aaaah
r0.04159540310502052 aaaai
r0.03644175827503204 aaaaj
r0.03268292173743248 aaaak
r0.02977025881409645 aaaal
r0.0274433046579361 aaaam
r0.02555408887565136 aaaan
r0.0240109134465456 aaaao
r0.02275569923222065 aaaap
r0.02175388298928738 aaaaq
r0.02099055983126163 aaaar
r0.02047157473862171 aaaas
r0.0202303621917963 aaaat
r0.02034628205001354 aaaau
r0.02098967134952545 aaaav
r0.02254568412899971 aaaaw
r0.0260287169367075 aaaax
r0.0350598469376564 aaaay
r0.07764313369989395 aaaaz
r0.09868048131465912 aaaba
r0.02512596733868122 aaabb
r0.0141325443983078 aaabc
r0.01040320657193661 aaabd
r0.008808997459709644 aaabe
r0.008016955107450485 aaabf
r0.007562254089862108 aaabg
r0.007261322345584631 aaabh
r0.007035700604319572 aaabi
r0.006849637720733881 aaabj
r0.006685994565486908 aaabk
r0.006536150816828012 aaabl
r0.006395610515028238 aaabm
r0.006261968053877354 aaabn
r0.006133874878287315 aaabo

#51
r64.33013153076172 aaaaa
r0.4896088242530823 aaaac
r0.1388753056526184 aaaad
r0.231262281537056 aaaae
r0.5562114715576172 aaaaf
r0.1385115534067154 aaaag
r0.07944851368665695 aaaah
r0.05478347465395927 aaaai
r0.04224085062742233 aaaaj
r0.03549675643444061 aaaak
r0.0311872735619545 aaaal
r0.02767869643867016 aaaam
r0.02468723431229591 aaaan
r0.0225443821400404 aaaao
r0.02142416313290596 aaaap
r0.02101750858128071 aaaaq
r0.02086534351110458 aaaar
r0.02081939391791821 aaaas
r0.02113729156553745 aaaat
r0.02225039526820183 aaaau
r0.02453372813761234 aaaav
r0.0284939706325531 aaaaw
r0.03572612255811691 aaaax
r0.05251634493470192 aaaay
r0.127280980348587 aaaaz
r0.1742522120475769 aaaba
r0.0454021655023098 aaabb
r0.02412428893148899 aaabc
r0.01558893546462059 aaabd
r0.01111507881432772 aaabe
r0.008359504863619804 aaabf
r0.006447871681302786 aaabg
r0.0050583491101861 aaabh
r0.004075502976775169 aaabi
r0.003400634741410613 aaabj
r0.002900874009355903 aaabk
r0.002468459773808718 aaabl
r0.002073748270049691 aaabm
r0.001749447546899319 aaabn
r0.001529445755295455 aaabo

#61
r32.624267578125 aaaaa
r0.4299991726875305 aaaab
r0.4089710116386414 aaaac
r0.3974224627017975 aaaad
r0.5877372026443481 aaaae
r1 aaaaf
r0.1872079968452454 aaaag
r0.08683518320322037 aaaah
r0.05651185289025307 aaaai
r0.03813765570521355 aaaaj
r0.02589871175587177 aaaak
r0.02188421785831451 aaaal
r0.01966219209134579 aaaam
r0.01648056320846081 aaaan
r0.0154954781755805 aaaao
r0.01681573688983917 aaaap
r0.01737507432699203 aaaaq
r0.01790722087025642 aaaar
r0.0204332247376442 aaaas
r0.02351493388414383 aaaat
r0.02666501328349113 aaaau
r0.03223771601915359 aaaav
r0.04132569953799248 aaaaw
r0.05620540678501129 aaaax
r0.09028805792331696 aaaay
r0.2391878366470337 aaaaz
r0.3547825813293457 aaaba
r0.100536085665226 aaabb
r0.05782248452305794 aaabc
r0.04028715193271637 aaabd
r0.03103474155068398 aaabe
r0.02488728612661362 aaabf
r0.0206065159291029 aaabg
r0.01782349683344364 aaabh
r0.01550405751913786 aaabi
r0.0135124558582902 aaabj
r0.01220849994570017 aaabk
r0.0110680041834712 aaabl
r0.009885153733193874 aaabm
r0.009104673750698566 aaabn
r0.008480374701321125 aaabo

#71
r35.53615188598633 aaaaa
r0.0714525505900383 aaaab
r0.09697456657886505 aaaac
r0.1610533893108368 aaaad
r0.417010486125946 aaaae
r0.2479784488677979 aaaag
r0.1477793902158737 aaaah
r0.1080528721213341 aaaai
r0.08672843873500824 aaaaj
r0.07346177101135254 aaaak
r0.06447792798280716 aaaal
r0.05807672068476677 aaaam
r0.05338670685887337 aaaan
r0.04992463812232018 aaaao
r0.04741384088993073 aaaap
r0.04570279270410538 aaaaq
r0.04472966119647026 aaaar
r0.04451401904225349 aaaas
r0.04517343640327454 aaaat
r0.04697859659790993 aaaau
r0.05049502849578857 aaaav
r0.05697188898921013 aaaaw
r0.0696377232670784 aaaax
r0.09986576437950134 aaaay
r0.2350094020366669 aaaaz
r0.311314195394516 aaaba
r0.07873041182756424 aaabb
r0.0408482626080513 aaabc
r0.02586919814348221 aaabd
r0.01818180456757545 aaabe
r0.01373756676912308 aaabf
r0.01101014204323292 aaabg
r0.009285725653171539 aaabh
r0.008178198710083961 aaabi
r0.007458027917891741 aaabj
r0.00698198052123189 aaabk
r0.006659338250756264 aaabl
r0.006432696711272001 aaabm
r0.006266005337238312 aaabn
r0.006136683281511068 aaabo

#81
r33.59529113769531 aaaaa
r0.1481258273124695 aaaab
r0.1718517988920212 aaaac
r0.2356258183717728 aaaad
r0.5024228692054749 aaaae
r0.2075847536325455 aaaag
r0.1041513308882713 aaaah
r0.06421718746423721 aaaai
r0.04331742227077484 aaaaj
r0.03054065071046352 aaaak
r0.02191565558314323 aaaal
r0.01565706729888916 aaaam
r0.01085279695689678 aaaan
r0.007022059056907892 aaaao
r0.004060557577759027 aaaap
r0.00291160773485899 aaaaq
r0.004647389054298401 aaaar
r0.007605972234159708 aaaas
r0.01123635470867157 aaaat
r0.01576658710837364 aaaau
r0.02182839252054691 aaaav
r0.03078737854957581 aaaaw
r0.04609990119934082 aaaax
r0.07983231544494629 aaaay
r0.2244160324335098 aaaaz
r0.3519349098205566 aaaba
r0.1044529527425766 aaabb
r0.06297286599874496 aaabc
r0.04575338959693909 aaabd
r0.03626904636621475 aaabe
r0.03023318760097027 aaabf
r0.02603675611317158 aaabg
r0.02293939515948296 aaabh
r0.02055253833532333 aaabi
r0.01865238323807716 aaabj
r0.01710081472992897 aaabk
r0.0158078558743 aaabl
r0.01471230760216713 aaabm
r0.01377108972519636 aaabn
r0.01295292377471924 aaabo

#91
r35.27909469604492 aaaaa
r0.08446460962295532 aaaab
r0.1087977662682533 aaaac
r0.1718466728925705 aaaad
r0.42837193608284 aaaae
r0.2433070838451385 aaaag
r0.1430060118436813 aaaah
r0.1034797206521034 aaaai
r0.08238302916288376 aaaaj
r0.06931966543197632 aaaak
r0.06050418689846992 aaaal
r0.05423634499311447 aaaam
r0.04964736104011536 aaaan
r0.04625700414180756 aaaao
r0.04379137232899666 aaaap
r0.04210124537348747 aaaaq
r0.04112677276134491 aaaar
r0.04088933393359184 aaaas
r0.0415085181593895 aaaat
r0.04325789958238602 aaaau
r0.04670802503824234 aaaav
r0.05311844870448112 aaaaw
r0.06574349850416183 aaaax
r0.09604316204786301 aaaay
r0.2320137023925781 aaaaz
r0.3184477686882019 aaaba
r0.08431179821491241 aaabb
r0.04626386985182762 aaabc
r0.0312341395765543 aaabd
r0.02347984537482262 aaabe
r0.01891236566007137 aaabf
r0.01599484495818615 aaabg
r0.01402103994041681 aaabh
r0.01262333616614342 aaabi
r0.01159403566271067 aaabj
r0.01080899126827717 aaabk
r0.01019088085740805 aaabl
r0.009689933620393276 aaabm
r0.009273338131606579 aaabn
r0.008918873034417629 aaabo

#101
r35.83219909667969 aaaaa
r0.04140390083193779 aaaab
r0.07436512410640717 aaaac
r0.1438329070806503 aaaad
r0.4020037353038788 aaaae
r0.2515302002429962 aaaag
r0.1498921066522598 aaaah
r0.1084665954113007 aaaai
r0.08542591333389282 aaaaj
r0.07043382525444031 aaaak
r0.05968332663178444 aaaal
r0.05143024027347565 aaaam
r0.04475066438317299 aaaan
r0.0390973873436451 aaaao
r0.0341116338968277 aaaap
r0.02953080274164677 aaaaq
r0.02513480931520462 aaaar
r0.02070569805800915 aaaas
r0.01598361507058144 aaaat
r0.01060003507882357 aaaau
r0.003998537547886372 aaaav
r0.005699975416064262 aaaaw
r0.02083423361182213 aaaax
r0.05325257778167725 aaaay
r0.1895572543144226 aaaaz
r0.3501134812831879 aaaba
r0.1174247041344643 aaabb
r0.07791788876056671 aaabc
r0.06119392812252045 aaabd
r0.05175593867897987 aaabe
r0.04558203369379044 aaabf
r0.04116111621260643 aaabg
r0.03779679164290428 aaabh
r0.03512273356318474 aaabi
r0.03292728587985039 aaabj
r0.03107931092381477 aaabk
r0.02949299290776253 aaabl
r0.0281096026301384 aaabm
r0.02688749320805073 aaabn
r0.02579623647034168 aaabo

#111
r34.46936416625977 aaaaa
r0.1188147813081741 aaaab
r0.1419842839241028 aaaac
r0.2042019069194794 aaaad
r0.4642912447452545 aaaae
r0.2276924401521683 aaaag
r0.1269640624523163 aaaah
r0.08821422606706619 aaaai
r0.06812607496976852 aaaaj
r0.05608602613210678 aaaak
r0.04824591055512428 aaaal
r0.04288915172219276 aaaam
r0.03914724662899971 aaaan
r0.03654657304286957 aaaao
r0.03482219204306602 aaaap
r0.03383481130003929 aaaaq
r0.03353496640920639 aaaar
r0.03395503014326096 aaaas
r0.03522691130638123 aaaat
r0.03763929754495621 aaaau
r0.04178400710225105 aaaav
r0.04895732179284096 aaaaw
r0.06249600276350975 aaaax
r0.09413367509841919 aaaay
r0.2339360117912292 aaaaz
r0.3288084864616394 aaaba
r0.0885186567902565 aaabb
r0.04892661422491074 aaabc
r0.03290929645299911 aaabd
r0.02436820976436138 aaabe
r0.01913194917142391 aaabf
r0.01563781872391701 aaabg
r0.01316890120506287 aaabh
r0.01135054137557745 aaabi
r0.009968171827495098 aaabj
r0.008890356868505478 aaabk
r0.008032245561480522 aaabl
r0.007336801383644342 aaabm
r0.006764420308172703 aaabn
r0.006286805495619774 aaabo

#121
r34.28688812255859 aaaaa
r0.1232831031084061 aaaab
r0.1467727571725845 aaaac
r0.20964115858078 aaaad
r0.471547544002533 aaaae
r0.2229475677013397 aaaag
r0.1209531649947166 aaaah
r0.08116955310106277 aaaai
r0.06004229187965393 aaaaj
r0.04688914865255356 aaaak
r0.03782352805137634 aaaal
r0.03109511733055115 aaaam
r0.02579803206026554 aaaan
r0.02141336724162102 aaaao
r0.01762064173817635 aaaap
r0.01421632897108793 aaaaq
r0.01109699811786413 aaaar
r0.008347827941179276 aaaas
r0.00665240315720439 aaaat
r0.007730338256806135 aaaau
r0.01236624922603369 aaaav
r0.02075847983360291 aaaaw
r0.03571344166994095 aaaax
r0.06885506957769394 aaaay
r0.2106747031211853 aaaaz
r0.3538689315319061 aaaba
r0.1111837923526764 aaabb
r0.07034062594175339 aaabc
r0.05326879024505615 aaabd
r0.04377889633178711 aaabe
r0.03767237067222595 aaabf
r0.03337353467941284 aaabg
r0.03015743009746075 aaabh
r0.02764353714883327 aaabi
r0.02561264485120773 aaabj
r0.02392935380339622 aaabk
r0.02250540070235729 aaabl
r0.02128062769770622 aaabm
r0.02021262980997562 aaabn
r0.01927056163549423 aaabo

#131
r36.06482315063477 aaaaa
r0.0297293234616518 aaaab
r0.06613399088382721 aaaac
r0.1363356709480286 aaaad
r0.3931142687797546 aaaae
r0.2567591071128845 aaaag
r0.1563496887683868 aaaah
r0.1159046292304993 aaaai
r0.09385591000318527 aaaaj
r0.07993730902671814 aaaak
r0.07038003951311111 aaaal
r0.06347468495368958 aaaam
r0.05833817645907402 aaaan
r0.05447632819414139 aaaao
r0.05160289257764816 aaaap
r0.04955789819359779 aaaaq
r0.04827186465263367 aaaar
r0.04775688052177429 aaaas
r0.04812252148985863 aaaat
r0.0496298149228096 aaaau
r0.05283036082983017 aaaav
r0.05894927307963371 aaaaw
r0.07116150856018066 aaaax
r0.1006664782762527 aaaay
r0.2335290014743805 aaaaz
r0.3051153123378754 aaaba
r0.07630828022956848 aaabb
r0.03939332067966461 aaabc
r0.025089330971241 aaabd
r0.01799947954714298 aaabe
r0.01410447340458632 aaabf
r0.01186137925833464 aaabg
r0.01053409650921822 aaabh
r0.009727310389280319 aaabi
r0.009218186140060425 aaabj
r0.008879605680704117 aaabk
r0.008639005944132805 aaabl
r0.008454845286905766 aaabm
r0.008303361013531685 aaabn
r0.008170787245035172 aaabo

#141
r34.34323501586914 aaaaa
r0.1230868920683861 aaaab
r0.1463138312101364 aaaac
r0.2087192535400391 aaaad
r0.4697163999080658 aaaae
r0.2248982042074203 aaaag
r0.1238321214914322 aaaah
r0.08495961874723434 aaaai
r0.06480322778224945 aaaaj
r0.05270974710583687 aaaak
r0.04481695592403412 aaaal
r0.0394025519490242 aaaam
r0.03559578582644463 aaaan
r0.03292256966233253 aaaao
r0.03111853823065758 aaaap
r0.03004578687250614 aaaaq
r0.0296569038182497 aaaar
r0.0299870204180479 aaaas
r0.03117155656218529 aaaat
r0.03350358083844185 aaaau
r0.0375806912779808 aaaav
r0.0447075143456459 aaaaw
r0.0582364946603775 aaaax
r0.08994721621274948 aaaay
r0.2302383035421371 aaaaz
r0.3345777988433838 aaaba
r0.09339037537574768 aaabb
r0.05361853539943695 aaabc
r0.03749007731676102 aaabd
r0.02884943410754204 aaabe
r0.0235123336315155 aaabf
r0.01991287618875504 aaabg
r0.01733407936990261 aaabh
r0.01540230214595795 aaabi
r0.01390436012297869 aaabj
r0.01271018944680691 aaabk
r0.01173620391637087 aaabl
r0.01092646829783916 aaabm
r0.01024217065423727 aaabn
r0.009655692614614964 aaabo

#151
r34.04063415527344 aaaaa
r0.1340502798557281 aaaab
r0.1573508977890015 aaaac
r0.2200969457626343 aaaad
r0.4831282794475555 aaaae
r0.2184049934148788 aaaag
r0.116877481341362 aaaah
r0.0781276598572731 aaaai
r0.05828437954187393 aaaaj
r0.04659384116530418 aaaak
r0.03915470466017723 aaaal
r0.03422536328434944 aaaam
r0.03092389367520809 aaaan
r0.02876883558928967 aaaao
r0.0274905264377594 aaaap
r0.02694683335721493 aaaaq
r0.02708685584366322 aaaar
r0.02794281393289566 aaaas
r0.02964788675308228 aaaat
r0.03249412402510643 aaaau
r0.03708076104521751 aaaav
r0.04472031816840172 aaaaw
r0.05879165977239609 aaaax
r0.09117621183395386 aaaay
r0.2330740392208099 aaaaz
r0.3364368975162506 aaaba
r0.09281335771083832 aaabb
r0.05242912471294403 aaabc
r0.03593042865395546 aaabd
r0.02701615169644356 aaabe
r0.02146246843039989 aaabf
r0.01768703199923038 aaabg
r0.0149639081209898 aaabh
r0.01291361264884472 aaabi
r0.01131866965442896 aaabj
r0.01004566717892885 aaabk
r0.009008304215967655 aaabl
r0.008148298598825932 aaabm
r0.007424982264637947 aaabn
r0.006809092126786709 aaabo

#161
r35.93391799926758 aaaaa
r0.03824623301625252 aaaab
r0.07168126851320267 aaaac
r0.1410254389047623 aaaad
r0.3983108401298523 aaaae
r0.2540054023265839 aaaag
r0.1530773788690567 aaaah
r0.1122545897960663 aaaai
r0.0898318737745285 aaaaj
r0.07551193982362747 aaaak
r0.06551365554332733 aaaal
r0.05811934173107147 aaaam
r0.05243789032101631 aaaan
r0.04796609655022621 aaaao
r0.04440706968307495 aaaap
r0.04158834367990494 aaaaq
r0.0394263006746769 aaaar
r0.03791810572147369 aaaas
r0.03716004267334938 aaaat
r0.0374065488576889 aaaau
r0.03921934589743614 aaaav
r0.04386597499251366 aaaaw
r0.05461582913994789 aaaax
r0.08283821493387222 aaaay
r0.2150584310293198 aaaaz
r0.3262954354286194 aaaba
r0.09697265177965164 aaabb
r0.05982194840908051 aaabc
r0.04499533399939537 aaabd
r0.03711257502436638 aaabe
r0.03222795203328133 aaabf
r0.02888757176697254 aaabg
r0.02643869258463383 aaabh
r0.02454830892384052 aaabi
r0.02303032018244267 aaabj
r0.02177325822412968 aaabk
r0.02070662751793861 aaabl
r0.0197837445884943 aaabm
r0.01897251047194004 aaabn
r0.0182501208037138 aaabo

#171
r35.21991729736328 aaaaa
r0.08356385678052902 aaaab
r0.1084622442722321 aaaac
r0.1723050773143768 aaaad
r0.4300080835819244 aaaae
r0.2412625104188919 aaaag
r0.1400044411420822 aaaah
r0.09959667176008224 aaaai
r0.07760950177907944 aaaaj
r0.06361390650272369 aaaak
r0.05380083993077278 aaaal
r0.0464470274746418 aaaam
r0.04065829142928123 aaaan
r0.03592480346560478 aaaao
r0.03193752095103264 aaaap
r0.02850636653602123 aaaaq
r0.025527723133564 aaaar
r0.02298745326697826 aaaas
r0.02101049572229385 aaaat
r0.01999186351895332 aaaau
r0.02084549888968468 aaaav
r0.02535453625023365 aaaaw
r0.03710521385073662 aaaax
r0.06747373938560486 aaaay
r0.2043094485998154 aaaaz
r0.3460737764835358 aaaba
r0.1103401035070419 aaabb
r0.0709260031580925 aaabc
r0.05453794449567795 aaabd
r0.04545275121927261 aaabe
r0.03960700333118439 aaabf
r0.03548264503479004 aaabg
r0.0323847196996212 aaabh
r0.0299503281712532 aaabi
r0.02797137387096882 aaabj
r0.02631990425288677 aaabk
r0.02491281926631927 aaabl
r0.02369370870292187 aaabm
r0.02262283675372601 aaabn
r0.02167137898504734 aaabo

#181
r34.06037902832031 aaaaa
r0.1329842805862427 aaaab
r0.1563232690095901 aaaac
r0.2191190123558044 aaaad
r0.4821170270442963 aaaae
r0.2186759412288666 aaaag
r0.116996243596077 aaaah
r0.07803113013505936 aaaai
r0.05793755128979683 aaaaj
r0.04597111791372299 aaaak
r0.03823656961321831 aaaal
r0.03299771621823311 aaaam
r0.02937827073037624 aaaan
r0.02690276503562927 aaaao
r0.02530784718692303 aaaap
r0.02445785515010357 aaaaq
r0.02430814318358898 aaaar
r0.02489653415977955 aaaas
r0.02636072598397732 aaaat
r0.02899583429098129 aaaau
r0.03340232372283936 aaaav
r0.04089203849434853 aaaaw
r0.05484052002429962 aaaax
r0.08712001144886017 aaaay
r0.228874683380127 aaaaz
r0.3403448462486267 aaaba
r0.09688244014978409 aaabb
r0.05652575567364693 aaabc
r0.04002777114510536 aaabd
r0.03109927475452423 aaabe
r0.02552100457251072 aaabf
r0.02171330899000168 aaabg
r0.01895214803516865 aaabh
r0.01685946993529797 aaabi
r0.01521892845630646 aaabj
r0.01389800012111664 aaabk
r0.0128110870718956 aaabl
r0.01190048269927502 aaabm
r0.01112596224993467 aaabn
r0.01045861560851336 aaabo

#191
r35.27226257324219 aaaaa
r0.08198034018278122 aaaab
r0.1068759486079216 aaaac
r0.1706399321556091 aaaad
r0.4279415011405945 aaaae
r0.2424779236316681 aaaag
r0.1414906829595566 aaaah
r0.1012934744358063 aaaai
r0.0795203372836113 aaaaj
r0.065760537981987 aaaak
r0.05621540173888206 aaaal
r0.04917139932513237 aaaam
r0.04374569654464722 aaaan
r0.03944285586476326 aaaao
r0.03597252443432808 aaaap
r0.03316839784383774 aaaaq
r0.03095480054616928 aaaar
r0.02934310212731361 aaaas
r0.02845785208046436 aaaat
r0.02860807999968529 aaaau
r0.03044956736266613 aaaav
r0.03538429737091064 aaaaw
r0.04683501645922661 aaaax
r0.07638821005821228 aaaay
r0.2120874375104904 aaaaz
r0.3383757472038269 aaaba
r0.1037767231464386 aaabb
r0.06508330255746841 aaabc
r0.04927219823002815 aaabd
r0.04066218808293343 aaabe
r0.03521338477730751 aaabf
r0.03142448142170906 aaabg
r0.02861310541629791 aaabh
r0.02642590552568436 aaabi
r0.02466217614710331 aaabj
r0.02319964393973351 aaabk
r0.02195972017943859 aaabl
r0.02088949643075466 aaabm
r0.01995209231972694 aaabn
r0.0191209651529789 aaabo

#201
r35.71562576293945 aaaaa
r0.06096316501498222 aaaab
r0.08796694874763489 aaaac
r0.1532227247953415 aaaad
r0.4090436100959778 aaaae
r0.2511322498321533 aaaag
r0.1509682834148407 aaaah
r0.1110850274562836 aaaai
r0.08959349989891052 aaaaj
r0.07618110626935959 aaaak
r0.06707798689603806 aaaal
r0.06058276444673538 aaaam
r0.05582154169678688 aaaan
r0.05230866745114326 aaaao
r0.04976547509431839 aaaap
r0.04803891852498055 aaaaq
r0.04706605896353722 aaaar
r0.04686566069722176 aaaas
r0.04755463451147079 aaaat
r0.049402866512537 aaaau
r0.05297421663999557 aaaav
r0.05951338261365891 aaaaw
r0.07223520427942276 aaaax
r0.1024591252207756 aaaay
r0.2371037602424622 aaaaz
r0.3062570989131927 aaaba
r0.07458174228668213 aaabb
r0.03658105060458183 aaabc
r0.02131537720561028 aaabd
r0.01325058192014694 aaabe
r0.008363189175724983 aaabf
r0.005147123243659735 aaabg
r0.002912438940256834 aaabh
r0.001299577299505472 aaabi
r0.0001205494118039496 aaabj
r0.0008123046718537807 aaabk
r0.001511151785962284 aaabl
r0.002056638244539499 aaabm
r0.002485840115696192 aaabn
r0.002825549570843577 aaabo

#211
r33.51055526733398 aaaaa
r0.1511307656764984 aaaab
r0.1749048084020615 aaaac
r0.2388197481632233 aaaad
r0.5062618255615234 aaaae
r0.2056333273649216 aaaag
r0.1020059064030647 aaaah
r0.062058474868536 aaaai
r0.0412215068936348 aaaaj
r0.0285697728395462 aaaak
r0.0201475340873003 aaaal
r0.01421661023050547 aaaam
r0.009976375848054886 aaaan
r0.007197762839496136 aaaao
r0.006116477772593498 aaaap
r0.006839242298156023 aaaaq
r0.008794829249382019 aaaar
r0.01150361262261868 aaaas
r0.01490937359631062 aaaat
r0.01927033253014088 aaaau
r0.02520573139190674 aaaav
r0.03407227247953415 aaaaw
r0.04932678118348122 aaaax
r0.08306083083152771 aaaay
r0.2279360741376877 aaaaz
r0.3499390780925751 aaaba
r0.1018925607204437 aaabb
r0.06036437302827835 aaabc
r0.04315450042486191 aaabd
r0.03369632735848427 aaabe
r0.02769282087683678 aaabf
r0.02353122644126415 aaabg
r0.02046957425773144 aaabh
r0.01811854541301727 aaabi
r0.01625393331050873 aaabj
r0.01473742444068193 aaabk
r0.01347892638295889 aaabl
r0.01241717580705881 aaabm
r0.01150907389819622 aaabn
r0.01072331331670284 aaabo

